{
  "projects": [
    {
      "name": "Wishlists",
      "description": "A simple Flask Webapp to manage your wishlists and publish them.",
      "startdate": {},
      "image": "url(\"images/thumbs/wishlists.png\")",
      "links": {
        "source": "https://gitlab.com/Niwla23/wishlists"
      }
    },
    {
      "name": "Minetest-Manager",
      "description": "A web interface to manage multiple Minetest Servers written in Python with the Flask framework.\n          To create and manage multiple Servers, Docker is used.",
      "startdate": {},
      "image": "url(\"images/thumbs/mt-manager.png\")",
      "links": {
        "source": "https://gitlab.com/Niwla23/minetest-manager",
        "blog": "https://blog.alwin.kat-zentrale.de/einfache-methode-um-minetest-server-zu-verwalten-minetest-manger/"
      }
    },
    {
      "name": "Minetest Batch Screwdriver",
      "description": "A mod for the open source voxel engine Minetest to turn multiple nodes in a row.",
      "startdate": {},
      "image": "url(\"images/thumbs/batch_screwdriver.png\")",
      "links": {
        "source": "https://gitlab.com/Niwla23/batch_screwdriver",
        "contentdb": "https://content.minetest.net/packages/niwla23/batch_screwdriver/"
      }
    },
    {
      "name": "iservscrapping",
      "description": "The scrapper for getting data from the Untis substition plan from my school.",
      "startdate": {},
      "image": "url(\"images/thumbs/code.png\")",
      "links": {
        "source": "gitlab.com/schoolserver_redo_project/iservscrapping"
      }
    },
    {
      "name": "Schoolserver_redo_project_api",
      "description": "The REST API for getting data from the Untis substition plan from my school.",
      "startdate": {},
      "image": "url(\"images/thumbs/code.png\")",
      "links": {
        "source": "gitlab.com/schoolserver_redo_project/schoolserver_redo_project_api"
      }
    },
    {
      "name": "Schoolserver_redo_project: frontend",
      "description": "The frontend getting data from the REST Api about substition plans from my school",
      "startdate": {},
      "image": "url(\"images/thumbs/code.png\")",
      "links": {
        "source": "gitlab.com/schoolserver_redo_project/frontend",
        "live": "https://app.vertreter.kat-zentrale.de/"
      }
    },
    {
      "name": "FFF Discord Bot",
      "description": "This is a Bot for the official FridaysForFuture Germany Discord maintained by me",
      "startdate": {},
      "image": "url(\"images/thumbs/fffbot.png\")",
      "links": {
        "source": "https://gitlab.com/fff-bots/fff-discord-bot"
      }
    },
    {
      "name": "FFF Demo Bot ",
      "description": "This is a Telegram Bot to list all upcoming FridaysForFuture Demos.",
      "startdate": {},
      "image": "url(\"images/thumbs/fffbot.png\")",
      "links": {
        "source": "https://gitlab.com/fff-bots/fffdemobot",
        "visit": "https://t.me/fffdemobot"
      }
    },
    {
      "name": "E3DC Dashboard",
      "description": "A custom dashboard for e3dc energy storages. Written in Python using the Flask framework. For frontend\n        stuff I used Bootstrap 4.",
      "startdate": {},
      "image": "url(\"images/thumbs/e3dc.png\")",
      "links": {
        "source": "https://gitlab.com/Niwla23/e3dc-dashboard"
      }
    },
    {
      "name": "Project Overview Site",
      "description": "This Page. I wrote it in Vue.js with material.io design.",
      "startdate": {},
      "image": "url(\"images/thumbs/projects.png\")",
      "links": {
        "source": "https://gitlab.com/Niwla23/myprojects"
      }
    },
    {
      "name": "Javascript Calculator",
      "description": "Just a simple calculator. It uses vanilla ECMAScript with material.io. Darkmode is enabled when enabled for system/browser",
      "startdate": "",
      "image": "url('images/thumbs/calc.png')",
      "links": {
        "Source Code": "https://gitlab.com/Niwla23/calc",
        "Demo": "https://calc.simpletools.ga/"
      }
    },
    {
      "name": "RunOrFall",
      "description": "A game for the Minetest Engine. You run arround in an area and blocks are falling down behind you. The last one who touches the ground wins.",
      "startdate": "",
      "image": "url('https://gitlab.com/Niwla23/runorfall-web/-/raw/master/assets/img/1.jpg')",
      "links": {
        "Source Code": "https://gitlab.com/Niwla23/runorfall",
        "Website": "https://runorfall.ga/"
      }
    },
    {
      "name": "Minetest: upgrades",
      "description": "A mod that can give you superpowers for a short time",
      "startdate": "",
      "image": "url('https://content.minetest.net/thumbnails/2/IqkwVVxMG0.png')",
      "links": {
        "Source Code": "https://gitlab.com/Niwla23/upgrades",
        "ContentDB": "https://content.minetest.net/packages/niwla23/upgrades/"
      }
    },
    {
      "name": "Minetest: fireworks_redo",
      "description": "An improved fork of open_fireworks.",
      "startdate": "",
      "image": "url('https://content.minetest.net/uploads/swIIkAXmSL.png')",
      "links": {
        "Source Code": "https://gitlab.com/Niwla23/fireworks_redo/",
        "ContentDB": "https://content.minetest.net/packages/niwla23/fireworks_redo/"
      }
    },
    {
      "name": "arduino_annoy",
      "description": "A simple Arduino script playing random sounds in random intervalls. Put a passive Buzzer on pin 8, Upload the sketch and annoy people! :)",
      "startdate": "",
      "image": "url('images/thumbs/electronics-421817_960_720.jpg')",
      "links": {
        "Source Code": "https://gitlab.com/Niwla23/arduino_annoy/"
      }
    },
    {
      "name": "schule-discord-bot",
      "description": "A bot to send substiton plans on Discord. Also provides a timetable.",
      "startdate": "",
      "image": "url('images/thumbs/android-161184_960_720.webp')",
      "links": {
        "Source Code": "https://gitlab.com/Niwla23/schule-discord-bot/"
      }
    },
    {
      "name": "Minetest: spikes",
      "description": "A Minetest Mod adding spikes to the game. Wood and Steel textures by StarNinja",
      "startdate": "",
      "image": "url('https://content.minetest.net/uploads/VrNZHjfl3Y.png')",
      "links": {
        "Source Code": "https://gitlab.com/Niwla23/spikes/"
      }
    },
    {
      "name": "Discord Welcomer",
      "description": "This discord bot plays an mp3 file every time a member joins a voice channel on your guild.",
      "startdate": "",
      "image": "url('images/thumbs/android-161184_960_720.webp')",
      "links": {
        "Source Code": "https://gitlab.com/Niwla23/discord-welcomer"
      }
    },
    {
      "name": "phoneticgenerator",
      "description": "Generates random phonetic strings you can read without hassle.",
      "startdate": "",
      "image": "url('images/thumbs/code.png')",
      "links": {
        "Source Code": "https://gitlab.com/Niwla23/phoneticgenerator"
      }
    }
  ]
}